<?xml version="1.0" encoding="utf-8"?>
<svg viewBox="0 0 1190.55 841.89" xmlns="http://www.w3.org/2000/svg">
  <g transform="matrix(1.810636, 0, 0, 1.810636, -481.738556, -363.243317)">
    <path d="M408.542,322.032c-54.793,0-99.212,44.421-99.212,99.214c0,54.792,44.419,99.211,99.212,99.211&#10;&#9;&#9;c54.794,0,99.212-44.419,99.212-99.211C507.755,366.453,463.336,322.032,408.542,322.032z M357.519,489.748&#10;&#9;&#9;c-3.392,0-6.142-2.75-6.142-6.143c0-3.392,2.75-6.142,6.142-6.142s6.142,2.75,6.142,6.142&#10;&#9;&#9;C363.661,486.998,360.911,489.748,357.519,489.748z M371.692,401.402c-4.689,0-8.504,3.816-8.504,8.505v62.361H351.85v-62.361&#10;&#9;&#9;c0-10.941,8.901-19.842,19.843-19.842c10.941,0,19.842,8.901,19.842,19.842v11.339h-11.339v-11.339&#10;&#9;&#9;c0-2.272-0.884-4.408-2.491-6.014C376.099,402.289,373.963,401.402,371.692,401.402z M419.881,455.261&#10;&#9;&#9;c0,5.298-2.064,10.28-5.812,14.029c-3.748,3.748-8.731,5.812-14.031,5.812c-10.941,0-19.843-8.901-19.843-19.844v-28.345h11.339&#10;&#9;&#9;v28.347c0,4.687,3.815,8.503,8.504,8.503s8.504-3.816,8.504-8.505v-28.345h11.338V455.261z M414.211,421.718&#10;&#9;&#9;c-3.392,0-6.142-2.75-6.142-6.143c0-3.392,2.75-6.142,6.142-6.142s6.142,2.75,6.142,6.142&#10;&#9;&#9;C420.354,418.968,417.604,421.718,414.211,421.718z M428.385,350.378c-4.689,0-8.504,3.816-8.504,8.505v45.354h-11.338v-45.354&#10;&#9;&#9;c0-10.94,8.902-19.842,19.842-19.842c10.941,0,19.842,8.902,19.842,19.842v11.339l-11.338-0.001v-11.338&#10;&#9;&#9;c0-2.272-0.885-4.408-2.491-6.014C432.792,351.265,430.657,350.378,428.385,350.378z M476.574,404.237&#10;&#9;&#9;c0,5.3-2.064,10.283-5.812,14.031c-3.747,3.749-8.729,5.811-14.03,5.811c-10.941,0-19.843-8.9-19.843-19.842v-28.345h11.338v28.345&#10;&#9;&#9;c0,4.69,3.815,8.505,8.504,8.505c4.689,0,8.503-3.814,8.503-8.505v-28.345h11.339V404.237z"/>
    <g>
      <path d="M620.714,446.453c0,6.743-0.677,12.978-2.021,18.707c-1.351,5.731-3.678,10.719-6.979,14.966&#10;&#9;&#9;&#9;c-3.307,4.247-7.686,7.553-13.146,9.909c-5.46,2.358-12.306,3.541-20.528,3.541c-4.854,0-9.304-0.44-13.348-1.315&#10;&#9;&#9;&#9;c-4.044-0.879-7.619-1.921-10.719-3.135c-3.104-1.214-5.698-2.494-7.787-3.842c-2.092-1.348-3.675-2.562-4.753-3.641l6.472-11.124&#10;&#9;&#9;&#9;c1.214,1.08,2.731,2.26,4.551,3.539c1.82,1.283,3.944,2.461,6.371,3.539c2.426,1.081,5.122,1.956,8.09,2.63&#10;&#9;&#9;&#9;c2.964,0.675,6.2,1.011,9.708,1.011c10.38,0,18.031-2.731,22.955-8.19c4.92-5.461,7.381-14.797,7.381-28.011v-94.652h13.754&#10;&#9;&#9;&#9;V446.453z"/>
      <path d="M729.256,486.901c-3.911,1.081-9.171,2.293-15.774,3.641c-6.608,1.347-14.697,2.021-24.27,2.021&#10;&#9;&#9;&#9;c-7.822,0-14.359-1.146-19.619-3.438c-5.258-2.291-9.504-5.526-12.74-9.708c-3.236-4.178-5.562-9.234-6.979-15.169&#10;&#9;&#9;&#9;c-1.415-5.931-2.123-12.47-2.123-19.616V385.98h13.146v54.403c0,7.417,0.538,13.688,1.618,18.81&#10;&#9;&#9;&#9;c1.078,5.126,2.832,9.271,5.258,12.438c2.429,3.169,5.562,5.46,9.405,6.875c3.843,1.418,8.526,2.125,14.056,2.125&#10;&#9;&#9;&#9;c6.201,0,11.594-0.336,16.18-1.012c4.584-0.672,7.483-1.28,8.697-1.82V385.98h13.146V486.901z"/>
      <path d="M739.185,528.362c-1.483,0-3.338-0.203-5.562-0.606c-2.226-0.405-3.874-0.88-4.955-1.417l1.82-10.719&#10;&#9;&#9;&#9;c0.945,0.269,2.225,0.537,3.842,0.809c1.619,0.27,3.17,0.405,4.652,0.405c7.954,0,13.246-2.226,15.876-6.675&#10;&#9;&#9;&#9;s3.944-11.124,3.944-20.022V385.98h13.146v103.55c0,13.213-2.497,22.986-7.484,29.325&#10;&#9;&#9;&#9;C759.475,525.191,751.046,528.362,739.185,528.362z"/>
      <path d="M881.221,486.901c-3.913,1.081-9.171,2.293-15.774,3.641c-6.608,1.347-14.698,2.021-24.27,2.021&#10;&#9;&#9;&#9;c-7.822,0-14.359-1.146-19.619-3.438c-5.258-2.291-9.505-5.526-12.74-9.708c-3.236-4.178-5.562-9.234-6.979-15.169&#10;&#9;&#9;&#9;c-1.416-5.931-2.123-12.47-2.123-19.616V385.98h13.146v54.403c0,7.417,0.535,13.688,1.617,18.81&#10;&#9;&#9;&#9;c1.078,5.126,2.831,9.271,5.258,12.438c2.428,3.169,5.562,5.46,9.404,6.875c3.844,1.418,8.527,2.125,14.057,2.125&#10;&#9;&#9;&#9;c6.199,0,11.594-0.336,16.18-1.012c4.584-0.672,7.483-1.28,8.697-1.82V385.98h13.146V486.901z"/>
    </g>
  </g>
</svg>
